^C:\USERS\PCMR\DESKTOP\CPP_PROGRAMY_MALINA\GRA_W_ZYCIE\GRA_W_ZYCIE\ENGINE.CPP
/c /Zi /nologo /W3 /WX- /diagnostics:classic /sdl /O2 /Oi /Oy- /GL /D _MBCS /Gm- /EHsc /MD /GS /Gy /fp:precise /permissive- /Zc:wchar_t /Zc:forScope /Zc:inline /Fo"RELEASE\\" /Fd"RELEASE\VC141.PDB" /Gd /TP /analyze- /FC C:\USERS\PCMR\DESKTOP\CPP_PROGRAMY_MALINA\GRA_W_ZYCIE\GRA_W_ZYCIE\ENGINE.CPP
^C:\USERS\PCMR\DESKTOP\CPP_PROGRAMY_MALINA\GRA_W_ZYCIE\GRA_W_ZYCIE\KOMORKA.CPP
/c /Zi /nologo /W3 /WX- /diagnostics:classic /sdl /O2 /Oi /Oy- /GL /D _MBCS /Gm- /EHsc /MD /GS /Gy /fp:precise /permissive- /Zc:wchar_t /Zc:forScope /Zc:inline /Fo"RELEASE\\" /Fd"RELEASE\VC141.PDB" /Gd /TP /analyze- /FC C:\USERS\PCMR\DESKTOP\CPP_PROGRAMY_MALINA\GRA_W_ZYCIE\GRA_W_ZYCIE\KOMORKA.CPP
^C:\USERS\PCMR\DESKTOP\CPP_PROGRAMY_MALINA\GRA_W_ZYCIE\GRA_W_ZYCIE\TABLICA.CPP
/c /Zi /nologo /W3 /WX- /diagnostics:classic /sdl /O2 /Oi /Oy- /GL /D _MBCS /Gm- /EHsc /MD /GS /Gy /fp:precise /permissive- /Zc:wchar_t /Zc:forScope /Zc:inline /Fo"RELEASE\\" /Fd"RELEASE\VC141.PDB" /Gd /TP /analyze- /FC C:\USERS\PCMR\DESKTOP\CPP_PROGRAMY_MALINA\GRA_W_ZYCIE\GRA_W_ZYCIE\TABLICA.CPP
^C:\USERS\PCMR\DESKTOP\CPP_PROGRAMY_MALINA\GRA_W_ZYCIE\GRA_W_ZYCIE\GRA.CPP
/c /Zi /nologo /W3 /WX- /diagnostics:classic /sdl /O2 /Oi /Oy- /GL /D _MBCS /Gm- /EHsc /MD /GS /Gy /fp:precise /permissive- /Zc:wchar_t /Zc:forScope /Zc:inline /Fo"RELEASE\\" /Fd"RELEASE\VC141.PDB" /Gd /TP /analyze- /FC C:\USERS\PCMR\DESKTOP\CPP_PROGRAMY_MALINA\GRA_W_ZYCIE\GRA_W_ZYCIE\GRA.CPP
^C:\USERS\PCMR\DESKTOP\CPP_PROGRAMY_MALINA\GRA_W_ZYCIE\GRA_W_ZYCIE\MAIN.CPP
/c /Zi /nologo /W3 /WX- /diagnostics:classic /sdl /O2 /Oi /Oy- /GL /D _MBCS /Gm- /EHsc /MD /GS /Gy /fp:precise /permissive- /Zc:wchar_t /Zc:forScope /Zc:inline /Fo"RELEASE\\" /Fd"RELEASE\VC141.PDB" /Gd /TP /analyze- /FC C:\USERS\PCMR\DESKTOP\CPP_PROGRAMY_MALINA\GRA_W_ZYCIE\GRA_W_ZYCIE\MAIN.CPP
^C:\USERS\PCMR\DESKTOP\CPP_PROGRAMY_MALINA\GRA_W_ZYCIE\GRA_W_ZYCIE\GRA_TXT.CPP
/c /Zi /nologo /W3 /WX- /diagnostics:classic /sdl /O2 /Oi /Oy- /GL /D _MBCS /Gm- /EHsc /MD /GS /Gy /fp:precise /permissive- /Zc:wchar_t /Zc:forScope /Zc:inline /Fo"RELEASE\\" /Fd"RELEASE\VC141.PDB" /Gd /TP /analyze- /FC C:\USERS\PCMR\DESKTOP\CPP_PROGRAMY_MALINA\GRA_W_ZYCIE\GRA_W_ZYCIE\GRA_TXT.CPP
^F:\CPP_PROGRAMY_MALINA\GRA_W_ZYCIE\GRA_W_ZYCIE\ENGINE.CPP
/c /Zi /nologo /W3 /WX- /diagnostics:classic /sdl /O2 /Oi /Oy- /GL /D _MBCS /Gm- /EHsc /MD /GS /Gy /fp:precise /permissive- /Zc:wchar_t /Zc:forScope /Zc:inline /Fo"RELEASE\\" /Fd"RELEASE\VC141.PDB" /Gd /TP /analyze- /FC F:\CPP_PROGRAMY_MALINA\GRA_W_ZYCIE\GRA_W_ZYCIE\ENGINE.CPP
^F:\CPP_PROGRAMY_MALINA\GRA_W_ZYCIE\GRA_W_ZYCIE\GRA.CPP
/c /Zi /nologo /W3 /WX- /diagnostics:classic /sdl /O2 /Oi /Oy- /GL /D _MBCS /Gm- /EHsc /MD /GS /Gy /fp:precise /permissive- /Zc:wchar_t /Zc:forScope /Zc:inline /Fo"RELEASE\\" /Fd"RELEASE\VC141.PDB" /Gd /TP /analyze- /FC F:\CPP_PROGRAMY_MALINA\GRA_W_ZYCIE\GRA_W_ZYCIE\GRA.CPP
^F:\CPP_PROGRAMY_MALINA\GRA_W_ZYCIE\GRA_W_ZYCIE\GRA_TXT.CPP
/c /Zi /nologo /W3 /WX- /diagnostics:classic /sdl /O2 /Oi /Oy- /GL /D _MBCS /Gm- /EHsc /MD /GS /Gy /fp:precise /permissive- /Zc:wchar_t /Zc:forScope /Zc:inline /Fo"RELEASE\\" /Fd"RELEASE\VC141.PDB" /Gd /TP /analyze- /FC F:\CPP_PROGRAMY_MALINA\GRA_W_ZYCIE\GRA_W_ZYCIE\GRA_TXT.CPP
^F:\CPP_PROGRAMY_MALINA\GRA_W_ZYCIE\GRA_W_ZYCIE\KOMORKA.CPP
/c /Zi /nologo /W3 /WX- /diagnostics:classic /sdl /O2 /Oi /Oy- /GL /D _MBCS /Gm- /EHsc /MD /GS /Gy /fp:precise /permissive- /Zc:wchar_t /Zc:forScope /Zc:inline /Fo"RELEASE\\" /Fd"RELEASE\VC141.PDB" /Gd /TP /analyze- /FC F:\CPP_PROGRAMY_MALINA\GRA_W_ZYCIE\GRA_W_ZYCIE\KOMORKA.CPP
^F:\CPP_PROGRAMY_MALINA\GRA_W_ZYCIE\GRA_W_ZYCIE\TABLICA.CPP
/c /Zi /nologo /W3 /WX- /diagnostics:classic /sdl /O2 /Oi /Oy- /GL /D _MBCS /Gm- /EHsc /MD /GS /Gy /fp:precise /permissive- /Zc:wchar_t /Zc:forScope /Zc:inline /Fo"RELEASE\\" /Fd"RELEASE\VC141.PDB" /Gd /TP /analyze- /FC F:\CPP_PROGRAMY_MALINA\GRA_W_ZYCIE\GRA_W_ZYCIE\TABLICA.CPP
^F:\CPP_PROGRAMY_MALINA\GRA_W_ZYCIE\GRA_W_ZYCIE\MAIN.CPP
/c /Zi /nologo /W3 /WX- /diagnostics:classic /sdl /O2 /Oi /Oy- /GL /D _MBCS /Gm- /EHsc /MD /GS /Gy /fp:precise /permissive- /Zc:wchar_t /Zc:forScope /Zc:inline /Fo"RELEASE\\" /Fd"RELEASE\VC141.PDB" /Gd /TP /analyze- /FC F:\CPP_PROGRAMY_MALINA\GRA_W_ZYCIE\GRA_W_ZYCIE\MAIN.CPP
